{
    "entry": {
        "main": [
            "./scripts/main.js",
            "./styles/main.scss"
        ],
        "customizer": [
            "./scripts/customizer.js"
        ]
    },
    "publicPath": "/north-east-custom/wp-content/themes/nec",
    "devUrl": "http://localhost/north-east-custom",
    "proxyUrl": "http://localhost:3000",
    "cacheBusting": "[name]_[hash:8]",
    "watch": [
        "{app,resources/views}/**/*.php"
    ],
    "browsers": [
        "last 2 versions",
        "android 4",
        "opera 12"
    ]
}