<?xml version="1.0" encoding="UTF-8"?>
<svg class="caret" width="12px" height="6px" viewBox="0 0 12 6" version="1.1" xmlns="http://www.w3.org/2000/svg" xmlns:xlink="http://www.w3.org/1999/xlink">
    <defs></defs>
    <g stroke="none" stroke-width="1" fill="none" fill-rule="evenodd">
        <g transform="translate(-919.000000, -584.000000)" fill="#000000">
            <g transform="translate(826.000000, 530.000000)">
                <polygon points="93 54 105 54 99 60"></polygon>
            </g>
        </g>
    </g>
</svg>
