<?xml version="1.0" encoding="UTF-8"?>
<svg class="icon align-middle" width="35px" height="29px" viewBox="0 0 35 29" version="1.1" xmlns="http://www.w3.org/2000/svg" xmlns:xlink="http://www.w3.org/1999/xlink">
    <title>cart icon</title>
    <defs></defs>
    <g id="Page-1" stroke="none" stroke-width="1" fill="none" fill-rule="evenodd">
        <g id="cart-icon-white" class="fillable" fill="#000000" fill-rule="nonzero">
            <polygon id="Line-Copy-3" points="29.8333333 21.3 29.8333333 22.3 10.4072774 22.3 11.2580636 17.3229008 12.2437659 17.4913969 11.5927226 21.3"></polygon>
            <path d="M3.67562254,1.5 L0.5,1.5 L0.5,0.5 L4.32006166,0.5 L7.56478667,7.65250253 L34.7430256,7.49570499 L30.3372498,18.4 L11.3422892,18.4 L3.67562254,1.5 Z M11.9867283,17.4 L29.6627502,17.4 L33.2569744,8.50429501 L8.01725893,8.64990875 L11.9867283,17.4 Z" id="Line-Copy-4"></path>
            <path d="M12.3333333,27.6 C13.069713,27.6 13.6666667,27.0179702 13.6666667,26.3 C13.6666667,25.5820298 13.069713,25 12.3333333,25 C11.5969537,25 11,25.5820298 11,26.3 C11,27.0179702 11.5969537,27.6 12.3333333,27.6 Z M12.3333333,28.6 C11.0502559,28.6 10,27.5760005 10,26.3 C10,25.0239995 11.0502559,24 12.3333333,24 C13.6164108,24 14.6666667,25.0239995 14.6666667,26.3 C14.6666667,27.5760005 13.6164108,28.6 12.3333333,28.6 Z" id="Oval-5"></path>
            <path d="M26.3333333,27.6 C27.069713,27.6 27.6666667,27.0179702 27.6666667,26.3 C27.6666667,25.5820298 27.069713,25 26.3333333,25 C25.5969537,25 25,25.5820298 25,26.3 C25,27.0179702 25.5969537,27.6 26.3333333,27.6 Z M26.3333333,28.6 C25.0502559,28.6 24,27.5760005 24,26.3 C24,25.0239995 25.0502559,24 26.3333333,24 C27.6164108,24 28.6666667,25.0239995 28.6666667,26.3 C28.6666667,27.5760005 27.6164108,28.6 26.3333333,28.6 Z" id="Oval-5"></path>
        </g>
    </g>
</svg>
