<?xml version="1.0" encoding="UTF-8"?>
<svg width="25px" height="22px" viewBox="0 0 30 22" version="1.1" xmlns="http://www.w3.org/2000/svg" xmlns:xlink="http://www.w3.org/1999/xlink">
    <!-- Generator: Sketch 52.2 (67145) - http://www.bohemiancoding.com/sketch -->
    <title>e206</title>
    <desc>Created with Sketch.</desc>
    <g id="Configuratore" stroke="none" stroke-width="1" fill="none" fill-rule="evenodd">
        <g id="iPhone-X---style-manager-Copy" transform="translate(-85.000000, -762.000000)" fill="#363b3d">
            <g id="e206" transform="translate(85.000000, 762.000000)">
                <polygon id="Path" points="9.52 17.3846154 27.6 0 30 2.30769231 9.52 22 0 12.8461538 2.4 10.5384615"></polygon>
            </g>
        </g>
    </g>
</svg>
