<?xml version="1.0" encoding="iso-8859-1"?>
<!-- Generator: Adobe Illustrator 18.1.1, SVG Export Plug-In . SVG Version: 6.00 Build 0)  -->
<svg version="1.1" id="Capa_1" xmlns="http://www.w3.org/2000/svg" xmlns:xlink="http://www.w3.org/1999/xlink" x="0px" y="0px"
	 viewBox="0 0 224.512 224.512" style="enable-background:new 0 0 224.512 224.512;" xml:space="preserve">
<g>
	<polygon class="fillable" fill="#010002" points="224.507,6.997 217.521,0 112.256,105.258 6.998,0 0.005,6.997 105.263,112.254
		0.005,217.512 6.998,224.512 112.256,119.24 217.521,224.512 224.507,217.512 119.249,112.254 	"/>
</g>
</svg>
