<?xml version="1.0" encoding="UTF-8"?>
<svg width="107px" height="107px" viewBox="0 0 107 107" version="1.1" xmlns="http://www.w3.org/2000/svg" xmlns:xlink="http://www.w3.org/1999/xlink">
    <!-- Generator: Sketch 49.3 (51167) - http://www.bohemiancoding.com/sketch -->
    <title>edit</title>
    <desc>Created with Sketch.</desc>
    <defs></defs>
    <g id="edit" stroke="none" stroke-width="1" fill="none" fill-rule="evenodd">
        <polygon id="Shape" fill="#111111" fill-rule="nonzero" points="62.1566344 21.0338418 68.8909847 14.2994915 92.7005085 38.1090153 85.9661582 44.8433656"></polygon>
        <polygon id="Shape" fill="#111111" fill-rule="nonzero" points="7.39472961 75.7957466 14.1290799 69.0613963 37.9386037 92.8709201 31.2042534 99.6052704"></polygon>
        <path d="M32.2833154,91.7918581 L95.8994915,28.175682 C97.7588997,26.3162739 97.7588997,23.3027738 95.8994915,21.4433656 L85.5566344,11.1005085 C83.6972262,9.24110035 80.6837261,9.24110035 78.824318,11.1005085 L15.2081419,74.7166846 L11.7931072,95.2068928 L32.2833154,91.7918581 Z M0.206892828,106.793107 L6.31566765,70.1404582 L72.0899677,4.36615818 C77.6686548,-1.21252892 86.7122976,-1.21252892 92.2909847,4.36615818 L102.633842,14.7090153 C108.212529,20.2877024 108.212529,29.3313452 102.633842,34.9100323 L36.8595418,100.684332 L0.206892828,106.793107 Z" id="Shape" fill="#111111" fill-rule="nonzero"></path>
    </g>
</svg>