<?xml version="1.0" encoding="UTF-8"?>
<svg width="22px" height="22px" viewBox="0 0 22 22" version="1.1" xmlns="http://www.w3.org/2000/svg" xmlns:xlink="http://www.w3.org/1999/xlink">
    <!-- Generator: Sketch 49 (51002) - http://www.bohemiancoding.com/sketch -->
    <title>Page 1</title>
    <desc>Created with Sketch.</desc>
    <defs></defs>
    <g id="Homepage" stroke="none" stroke-width="1" fill="none" fill-rule="evenodd">
        <g id="Home-6" transform="translate(-706.000000, -610.000000)" fill="#363b3d">
            <g id="Group-2" transform="translate(605.000000, 610.000000)">
                <path d="M114.592447,13.5924472 C115.308598,12.8762991 115.666668,12.012157 115.666668,11.0000016 C115.666668,9.98784304 115.308598,9.12370093 114.592447,8.40755282 C113.876299,7.69140151 113.012157,7.33333226 111.999998,7.33333226 C110.987843,7.33333226 110.123701,7.69140151 109.407553,8.40755282 C108.691402,9.12370093 108.333332,9.98784304 108.333332,11.0000016 C108.333332,12.012157 108.691402,12.8762991 109.407553,13.5924472 C110.123701,14.3085985 110.987843,14.6666677 111.999998,14.6666677 C113.012157,14.6666677 113.876299,14.3085985 114.592447,13.5924472 Z M115.996093,7.00390702 C117.09419,8.10200079 117.643229,9.43402055 117.643229,11.0000016 C117.643229,12.5659794 117.09419,13.8979992 115.996093,14.996093 C114.897999,16.09419 113.565979,16.6432288 111.999998,16.6432288 C110.434021,16.6432288 109.102001,16.09419 108.003907,14.996093 C106.90581,13.8979992 106.356771,12.5659794 106.356771,11.0000016 C106.356771,9.43402055 106.90581,8.10200079 108.003907,7.00390702 C109.102001,5.90581004 110.434021,5.35677118 111.999998,5.35677118 C113.565979,5.35677118 114.897999,5.90581004 115.996093,7.00390702 Z M118.803385,4.19661541 C119.0612,4.45442745 119.190104,4.76475669 119.190104,5.12760314 C119.190104,5.4904528 119.0612,5.80077884 118.803385,6.05859408 C118.545573,6.31640933 118.235243,6.44531374 117.872397,6.44531374 C117.509547,6.44531374 117.199221,6.31640933 116.941406,6.05859408 C116.683591,5.80077884 116.554686,5.4904528 116.554686,5.12760314 C116.554686,4.76475669 116.683591,4.45442745 116.941406,4.19661541 C117.199221,3.93880017 117.509547,3.80989575 117.872397,3.80989575 C118.235243,3.80989575 118.545573,3.93880017 118.803385,4.19661541 Z M113.088541,1.97656429 C112.429684,1.97656429 112.066841,1.97656429 111.999998,1.97656429 C111.933159,1.97656429 111.567929,1.97417729 110.904298,1.96940008 C110.240664,1.96462608 109.736981,1.96462608 109.393228,1.96940008 C109.049477,1.97417729 108.588761,1.98849929 108.011068,2.01236929 C107.433372,2.0362425 106.941625,2.08398571 106.535806,2.15559891 C106.12999,2.22721533 105.78863,2.31553754 105.511719,2.42057195 C105.034287,2.61154799 104.614152,2.88845281 104.251302,3.25130247 C103.888453,3.61415213 103.611546,4.03428658 103.420573,4.51171866 C103.315538,4.7886299 103.227214,5.12999014 103.155599,5.53580901 C103.083984,5.94162467 103.036242,6.43337553 103.01237,7.01106802 C102.988498,7.58876051 102.974175,8.04947717 102.969401,8.39323083 C102.964627,8.73698128 102.964627,9.24066393 102.969401,9.90429804 C102.974175,10.5679289 102.976562,10.9331592 102.976562,11.0000016 C102.976562,11.0668408 102.974175,11.4320711 102.969401,12.095702 C102.964627,12.7593361 102.964627,13.2630187 102.969401,13.6067724 C102.974175,13.9505228 102.988498,14.4112395 103.01237,14.988932 C103.036242,15.5666277 103.083984,16.0583753 103.155599,16.4641942 C103.227214,16.8700099 103.315538,17.2113701 103.420573,17.4882813 C103.611546,17.9657134 103.888453,18.3858479 104.251302,18.7486975 C104.614152,19.1115469 105.034287,19.3884539 105.511719,19.5794271 C105.78863,19.6844625 106.12999,19.7727863 106.535806,19.8444011 C106.941625,19.9160159 107.433372,19.9637585 108.011068,19.9876304 C108.588761,20.011502 109.049477,20.0258246 109.393228,20.030599 C109.736981,20.0353733 110.240664,20.0353733 110.904298,20.030599 C111.567929,20.0258246 111.933159,20.0234376 111.999998,20.0234376 C112.066841,20.0234376 112.432071,20.0258246 113.095702,20.030599 C113.759336,20.0353733 114.263019,20.0353733 114.606769,20.030599 C114.950523,20.0258246 115.411239,20.011502 115.988932,19.9876304 C116.566624,19.9637585 117.058375,19.9160159 117.464191,19.8444011 C117.87001,19.7727863 118.21137,19.6844625 118.488281,19.5794271 C118.965713,19.3884539 119.385848,19.1115469 119.748698,18.7486975 C120.111547,18.3858479 120.388452,17.9657134 120.579428,17.4882813 C120.684462,17.2113701 120.772785,16.8700099 120.844401,16.4641942 C120.916014,16.0583753 120.963758,15.5666277 120.987631,14.988932 C121.011501,14.4112395 121.025823,13.9505228 121.0306,13.6067724 C121.035374,13.2630187 121.035374,12.7593361 121.0306,12.095702 C121.025823,11.4320711 121.023436,11.0668408 121.023436,11.0000016 C121.023436,10.9331592 121.025823,10.5679289 121.0306,9.90429804 C121.035374,9.24066393 121.035374,8.73698128 121.0306,8.39323083 C121.025823,8.04947717 121.011501,7.58876051 120.987631,7.01106802 C120.963758,6.43337553 120.916014,5.94162467 120.844401,5.53580901 C120.772785,5.12999014 120.684462,4.7886299 120.579428,4.51171866 C120.388452,4.03428658 120.111547,3.61415213 119.748698,3.25130247 C119.385848,2.88845281 118.965713,2.61154799 118.488281,2.42057195 C118.21137,2.31553754 117.87001,2.22721533 117.464191,2.15559891 C117.058375,2.08398571 116.566624,2.0362425 115.988932,2.01236929 C115.411239,1.98849929 114.950523,1.97417729 114.606769,1.96940008 C114.263019,1.96462608 113.756949,1.96701308 113.088541,1.97656429 Z M122.928384,6.45963574 C122.976127,7.29991747 123,8.81335886 123,11.0000016 C123,13.1866444 122.976127,14.7000825 122.928384,15.5403643 C122.832897,17.5264862 122.240889,19.0637966 121.152343,20.1523437 C120.063798,21.240891 118.526486,21.8328988 116.540364,21.9283854 C115.700083,21.9761287 114.186641,22 111.999998,22 C109.813356,22 108.299917,21.9761287 107.459636,21.9283854 C105.473514,21.8328988 103.936203,21.240891 102.847656,20.1523437 C101.759109,19.0637966 101.167101,17.5264862 101.071615,15.5403643 C101.023871,14.7000825 101,13.1866444 101,11.0000016 C101,8.81335886 101.023871,7.29991747 101.071615,6.45963574 C101.167101,4.47351382 101.759109,2.93620244 102.847656,1.84765667 C103.936203,0.759110901 105.473514,0.16710283 107.459636,0.0716164152 C108.299917,0.0238732078 109.813356,0 111.999998,0 C114.186641,0 115.700083,0.0238732078 116.540364,0.0716164152 C118.526486,0.16710283 120.063798,0.759110901 121.152343,1.84765667 C122.240889,2.93620244 122.832897,4.47351382 122.928384,6.45963574 Z" id="Page-1"></path>
            </g>
        </g>
    </g>
</svg>
