<?xml version="1.0" encoding="UTF-8"?>
<svg class="logo" width="300px" height="163px" viewBox="0 0 300 163" version="1.1" preserveAspectRatio="xMidYMid meet" xmlns="http://www.w3.org/2000/svg" xmlns:xlink="http://www.w3.org/1999/xlink">
    <title>logo-dn-white</title>
    <defs></defs>
    <g id="Page-1" stroke="none" stroke-width="1" fill="none" fill-rule="evenodd">
        <g id="logo-dn-white" class="fillable" fill="#000000" fill-rule="nonzero">
            <path d="M35.5592224,132.558223 L67.2680834,132.558223 C72.4019244,132.558223 77.3846956,131.7285 82.2165461,130.069028 C87.0483967,128.409556 91.3516993,125.656382 95.1265823,121.809424 C98.9014658,117.962466 101.921327,112.94641 104.186257,106.761104 C106.451187,100.575799 107.583635,93.0328574 107.583635,84.132053 C107.583635,75.9855537 106.790921,68.6311854 105.20547,62.0687274 C103.620019,55.5062699 101.015389,49.8867782 97.3915009,45.2100841 C93.7676131,40.53339 88.9735831,36.9504926 83.0092678,34.4612845 C77.0449521,31.9720764 69.6840402,30.727491 60.9263109,30.727491 L35.5592224,30.727491 L35.5592224,132.558223 Z M0,0.857142857 L69.7594936,0.857142857 C80.1781717,0.857142857 89.8794761,2.51659005 98.8636982,5.8355342 C107.84792,9.15447839 115.624063,14.13282 122.19236,20.7707083 C128.760657,27.4085966 133.894421,35.7058326 137.593807,45.662665 C141.293192,55.6194977 143.142857,67.3110574 143.142857,80.737695 C143.142857,92.5048606 141.632926,103.366697 138.61302,113.32353 C135.593114,123.280362 131.025573,131.879315 124.910262,139.120648 C118.794951,146.361981 111.169802,152.056902 102.034584,156.205582 C92.8993667,160.354263 82.1411107,162.428571 69.7594936,162.428571 L0,162.428571 L0,0.857142857 Z" id="D"></path>
            <polygon id="N" transform="translate(231.642857, 80.785714) scale(-1, 1) translate(-231.642857, -80.785714) " points="163.285714 0 198.654584 0 266.218195 108.393157 266.671642 108.393157 266.671642 0 300 0 300 161.571429 264.404407 161.571429 197.06752 53.4045619 196.614072 53.4045619 196.614072 161.571429 163.285714 161.571429"></polygon>
        </g>
    </g>
</svg>
