<?xml version="1.0" encoding="UTF-8"?>
<svg width="10px" height="20px" viewBox="0 0 10 20" version="1.1" xmlns="http://www.w3.org/2000/svg" xmlns:xlink="http://www.w3.org/1999/xlink">
    <!-- Generator: Sketch 49 (51002) - http://www.bohemiancoding.com/sketch -->
    <title>Page 1</title>
    <desc>Created with Sketch.</desc>
    <defs></defs>
    <g id="Homepage" stroke="none" stroke-width="1" fill="none" fill-rule="evenodd">
        <g id="Home-6" transform="translate(-605.000000, -611.000000)" fill="#363b3d">
            <g id="Group-2" transform="translate(605.000000, 610.000000)">
                <path d="M2.5,21 L6.25,21 L6.25,11 L9.6484375,11 L10,7.5625 L6.25,7.5625 L6.25,5.84375 C6.25,5.322915 6.328125,4.958335 6.484375,4.75 C6.640625,4.541665 7.018225,4.4375 7.6171875,4.4375 L10,4.4375 L10,1 L6.5625,1 C4.9999925,1 3.932295,1.37109 3.359375,2.11328 C2.786455,2.8554725 2.5,3.994785 2.5,5.53125 L2.5,7.5625 L0,7.5625 L0,11 L2.5,11 L2.5,21 Z" id="Page-1"></path>
            </g>
        </g>
    </g>
</svg>
