<?xml version="1.0" encoding="UTF-8"?>
<svg width="24px" height="24px" viewBox="0 0 24 24" version="1.1" xmlns="http://www.w3.org/2000/svg" xmlns:xlink="http://www.w3.org/1999/xlink">
    <!-- Generator: Sketch 51.2 (57519) - http://www.bohemiancoding.com/sketch -->
    <title>Oval Copy 2</title>
    <desc>Created with Sketch.</desc>
    <defs></defs>
    <g id="Schedule" stroke="none" stroke-width="1" fill="none" fill-rule="evenodd">
        <g id="Desktop-HD-Copy-21" transform="translate(-900.000000, -455.000000)" fill="#000000">
            <g id="Group-5" transform="translate(826.000000, 455.000000)">
                <circle id="Oval-Copy-2" cx="86" cy="12" r="12"></circle>
            </g>
        </g>
    </g>
</svg>