<?xml version="1.0" encoding="UTF-8"?>
<svg width="22px" height="21px" viewBox="0 0 22 21" version="1.1" xmlns="http://www.w3.org/2000/svg" xmlns:xlink="http://www.w3.org/1999/xlink">
    <!-- Generator: Sketch 49.3 (51167) - http://www.bohemiancoding.com/sketch -->
    <title>Page 1</title>
    <desc>Created with Sketch.</desc>
    <defs></defs>
    <g id="Schedule" stroke="none" stroke-width="1" fill="none" fill-rule="evenodd">
        <g id="Product" transform="translate(-829.000000, -745.000000)" fill="#000000">
            <g id="Group-11" transform="translate(829.000000, 745.000000)">
                <path d="M21.664,4.816 L19.48,7 L15,2.52 L17.184,0.336 C17.408,0.112 17.688,0 18.024,0 C18.36,0 18.64,0.112 18.864,0.336 L21.664,3.136 C21.888,3.36 22,3.64 22,3.976 C22,4.312 21.888,4.592 21.664,4.816 Z M0,16.443038 L13.443038,3 L18,7.55696203 L4.55696203,21 L0,21 L0,16.443038 Z" id="Page-1"></path>
            </g>
        </g>
    </g>
</svg>