<?xml version="1.0" encoding="UTF-8"?>
<svg width="168px" height="157px" viewBox="0 0 168 157" version="1.1" xmlns="http://www.w3.org/2000/svg" xmlns:xlink="http://www.w3.org/1999/xlink">
    <defs></defs>
    <g id="Symbols" stroke="none" stroke-width="1" fill="none" fill-rule="evenodd" stroke-linecap="square">
        <g id="tick" transform="translate(43.000000, 42.000000)">
            <polyline class="strokable" id="bottom-tick" stroke="#FFFFFF" stroke-width="60" points="0 55.3803711 12.6542174 65.768075 21.3183594 72.8803711 81.8271484 1.19824219"></polyline>
            <polyline class="strokable" id="top-tick" stroke="#1F1F1F" stroke-width="25" points="0 54.918457 12.6542174 65.3061609 21.3183594 72.418457 82.6259766 0"></polyline>
        </g>
    </g>
</svg>
