<?xml version="1.0" encoding="UTF-8"?>
<svg width="87px" height="142px" viewBox="0 0 87 142" version="1.1" xmlns="http://www.w3.org/2000/svg" xmlns:xlink="http://www.w3.org/1999/xlink">
    <!-- Generator: Sketch 52.2 (67145) - http://www.bohemiancoding.com/sketch -->
    <title>arrow-down</title>
    <desc>Created with Sketch.</desc>
    <g id="Configuratore" stroke="none" stroke-width="1" fill="none" fill-rule="evenodd">
        <path d="M-26.0208333,66.7702702 C-27.0069523,67.7956683 -27.5,69.205563 -27.5,71.0000036 C-27.5,72.7944441 -26.9453164,74.2684216 -25.8359336,75.4220098 C-24.7265586,76.5755735 -23.3090357,77.152343 -21.5833333,77.152343 L94.1614583,77.152343 L69.015625,103.684307 C66.057268,106.504143 65.99564,109.388022 68.8307173,112.336034 C71.6658183,115.284046 74.4392203,115.219958 77.1510417,112.143773 L112.651042,75.2297369 C113.390625,74.7170502 113.883673,74.0761733 114.130208,73.3071308 C114.376744,72.5380884 114.5,71.769046 114.5,71.0000036 C114.5,70.2309611 114.376744,69.4619187 114.130208,68.6928763 C113.883673,67.9238338 113.390625,67.2829569 112.651042,66.7702702 L77.1510417,29.8562336 C74.4392203,26.7800393 71.6658183,26.7159565 68.8307173,29.6639607 C65.99564,32.6119895 66.057268,35.4958617 69.015625,38.3157003 L94.1614583,64.8476641 L-21.5833333,64.8476641 C-23.3090357,64.8476641 -24.7881866,65.4885164 -26.0208333,66.7702702 Z" id="arrow-down" fill="#FFFFFF" transform="translate(43.500000, 71.000000) scale(-1, 1) rotate(-270.000000) translate(-43.500000, -71.000000) "></path>
    </g>
</svg>