<?xml version="1.0" encoding="UTF-8"?>
<svg width="18px" height="11px" viewBox="0 0 18 11" version="1.1" xmlns="http://www.w3.org/2000/svg" xmlns:xlink="http://www.w3.org/1999/xlink">
    <!-- Generator: Sketch 51.2 (57519) - http://www.bohemiancoding.com/sketch -->
    <title>Page 1</title>
    <desc>Created with Sketch.</desc>
    <defs></defs>
    <g id="Configuratore" stroke="none" stroke-width="1" fill="none" fill-rule="evenodd">
        <g id="Vista-iniziale" transform="translate(-813.000000, -682.000000)" fill="#2E2E2E">
            <g id="Group-18" transform="translate(93.000000, 682.000000)">
                <path d="M720.1875,4.96520658 C720.062499,5.09485461 720,5.27311716 720,5.50000045 C720,5.72688374 720.070312,5.91324871 720.210938,6.05910469 C720.351563,6.20495757 720.531249,6.27788245 720.75,6.27788245 L735.421875,6.27788245 L732.234375,9.63249856 C731.859372,9.98902957 731.85156,10.353658 732.210936,10.7263951 C732.570315,11.0991322 732.921873,11.0910292 733.265625,10.7020863 L737.765625,6.03479432 C737.859375,5.96997186 737.921874,5.88894145 737.953125,5.7917062 C737.984376,5.69447095 738,5.5972357 738,5.50000045 C738,5.4027652 737.984376,5.30552995 737.953125,5.2082947 C737.921874,5.11105945 737.859375,5.03002904 737.765625,4.96520658 L733.265625,0.297914595 C732.921873,-0.0910295146 732.570315,-0.0991319335 732.210936,0.273604227 C731.85156,0.6463435 731.859372,1.01097102 732.234375,1.36750234 L735.421875,4.72211845 L720.75,4.72211845 C720.531249,4.72211845 720.343751,4.80314575 720.1875,4.96520658 Z" id="Page-1" transform="translate(729.000000, 5.500000) scale(-1, 1) translate(-729.000000, -5.500000) "></path>
            </g>
        </g>
    </g>
</svg>