<?xml version="1.0" encoding="UTF-8"?>
<svg width="35px" height="37px" viewBox="0 0 35 37" version="1.1" xmlns="http://www.w3.org/2000/svg" xmlns:xlink="http://www.w3.org/1999/xlink">
    <!-- Generator: Sketch 51.2 (57519) - http://www.bohemiancoding.com/sketch -->
    <title>empty-cart</title>
    <desc>Created with Sketch.</desc>
    <defs></defs>
    <g id="Page-1" stroke="none" stroke-width="1" fill="none" fill-rule="evenodd">
        <g id="empty-cart" fill="#000000" fill-rule="nonzero">
            <polygon id="Line-Copy-3" points="29.8333333 29.3 29.8333333 30.3 10.4072774 30.3 11.2580636 25.3229008 12.2437659 25.4913969 11.5927226 29.3"></polygon>
            <path d="M3.67562254,9.5 L0.5,9.5 L0.5,8.5 L4.32006166,8.5 L7.56478667,15.6525025 L34.7430256,15.495705 L30.3372498,26.4 L11.3422892,26.4 L3.67562254,9.5 Z M11.9867283,25.4 L29.6627502,25.4 L33.2569744,16.504295 L8.01725893,16.6499088 L11.9867283,25.4 Z" id="Line-Copy-4"></path>
            <path d="M12.3333333,35.6 C13.069713,35.6 13.6666667,35.0179702 13.6666667,34.3 C13.6666667,33.5820298 13.069713,33 12.3333333,33 C11.5969537,33 11,33.5820298 11,34.3 C11,35.0179702 11.5969537,35.6 12.3333333,35.6 Z M12.3333333,36.6 C11.0502559,36.6 10,35.5760005 10,34.3 C10,33.0239995 11.0502559,32 12.3333333,32 C13.6164108,32 14.6666667,33.0239995 14.6666667,34.3 C14.6666667,35.5760005 13.6164108,36.6 12.3333333,36.6 Z" id="Oval-5"></path>
            <path d="M26.3333333,35.6 C27.069713,35.6 27.6666667,35.0179702 27.6666667,34.3 C27.6666667,33.5820298 27.069713,33 26.3333333,33 C25.5969537,33 25,33.5820298 25,34.3 C25,35.0179702 25.5969537,35.6 26.3333333,35.6 Z M26.3333333,36.6 C25.0502559,36.6 24,35.5760005 24,34.3 C24,33.0239995 25.0502559,32 26.3333333,32 C27.6164108,32 28.6666667,33.0239995 28.6666667,34.3 C28.6666667,35.5760005 27.6164108,36.6 26.3333333,36.6 Z" id="Oval-5"></path>
            <path d="M21.109375,8.6015625 L20.171875,8.6015625 L20.171875,0.625 L21.109375,0.625 L21.109375,8.6015625 Z M20.015625,11.4375 C20.015625,11.2552074 20.0755202,11.1002611 20.1953125,10.9726562 C20.3151048,10.8450514 20.4765615,10.78125 20.6796875,10.78125 C20.8880219,10.78125 21.0533848,10.8450514 21.1757812,10.9726562 C21.2981777,11.1002611 21.359375,11.2552074 21.359375,11.4375 C21.359375,11.6145842 21.2968756,11.7630202 21.171875,11.8828125 C21.0468744,12.0026048 20.8828135,12.0625 20.6796875,12.0625 C20.4765615,12.0625 20.3151048,12.0026048 20.1953125,11.8828125 C20.0755202,11.7630202 20.015625,11.6145842 20.015625,11.4375 Z" id="!"></path>
        </g>
    </g>
</svg>