<?xml version="1.0" encoding="UTF-8"?>
<svg width="18px" height="18px" viewBox="0 0 18 18" version="1.1" xmlns="http://www.w3.org/2000/svg" xmlns:xlink="http://www.w3.org/1999/xlink">
    <!-- Generator: Sketch 52.5 (67469) - http://www.bohemiancoding.com/sketch -->
    <title>Path</title>
    <desc>Created with Sketch.</desc>
    <g id="Configuratore" stroke="none" stroke-width="1" fill="none" fill-rule="evenodd">
        <g id="iPhone-X---style-manager-colors-Copy-11" transform="translate(-85.000000, -773.000000)" fill="#000000">
            <g id="e209" transform="translate(85.000000, 773.000000)">
                <polygon id="Path" points="18 1.81208054 10.8120805 9 18 16.1879195 16.1879195 18 9 10.8120805 1.81208054 18 0 16.1879195 7.18791946 9 0 1.81208054 1.81208054 0 9 7.18791946 16.1879195 0"></polygon>
            </g>
        </g>
    </g>
</svg>