<?xml version="1.0" encoding="UTF-8"?>
<svg width="33px" height="25px" viewBox="0 0 33 25" version="1.1" xmlns="http://www.w3.org/2000/svg" xmlns:xlink="http://www.w3.org/1999/xlink">
    <!-- Generator: Sketch 51.2 (57519) - http://www.bohemiancoding.com/sketch -->
    <title>green-tick</title>
    <desc>Created with Sketch.</desc>
    <defs></defs>
    <g id="Page-1" stroke="none" stroke-width="1" fill="none" fill-rule="evenodd">
        <g id="f3fd" fill="#24B24B" fill-rule="nonzero">
            <path d="M11.5625,23.90625 C11.145831,24.322919 10.677086,24.53125 10.15625,24.53125 C9.635414,24.53125 9.166669,24.322919 8.75,23.90625 L0,15.15625 L2.8125,12.34375 L10.15625,19.6875 L29.6875,0 L32.34375,2.8125 L11.5625,23.90625 Z" id="green-tick"></path>
        </g>
    </g>
</svg>